/* XPM */
static char * p008_xpm[] = {
"30 30 71 1",
" 	c None",
".	c #3F3F3F",
"+	c #424242",
"@	c #FFFFFF",
"#	c #2B2B2B",
"$	c #3A3A3A",
"%	c #3C3C3C",
"&	c #383838",
"*	c #313131",
"=	c #2D2D2D",
"-	c #1C1C1C",
";	c #242424",
">	c #2A2A2A",
",	c #232323",
"'	c #1D1D1D",
")	c #080808",
"!	c #3B3B3B",
"~	c #323232",
"{	c #303030",
"]	c #212121",
"^	c #1F1F1F",
"/	c #191919",
"(	c #131313",
"_	c #181818",
":	c #2E2E2E",
"<	c #292929",
"[	c #262626",
"}	c #272727",
"|	c #1A1A1A",
"1	c #151515",
"2	c #0F0F0F",
"3	c #161616",
"4	c #020202",
"5	c #101010",
"6	c #0E0E0E",
"7	c #121212",
"8	c #000000",
"9	c #0B0B0B",
"0	c #090909",
"a	c #050505",
"b	c #040404",
"c	c #4D4D4D",
"d	c #343434",
"e	c #202020",
"f	c #0C0C0C",
"g	c #070707",
"h	c #010101",
"i	c #373737",
"j	c #FDFDFD",
"k	c #FEFEFE",
"l	c #FBFBFB",
"m	c #FAFAFA",
"n	c #F8F8F8",
"o	c #F3F3F3",
"p	c #F1F1F1",
"q	c #F4F4F4",
"r	c #EFEFEF",
"s	c #D9D9D9",
"t	c #F6F6F6",
"u	c #F7F7F7",
"v	c #F0F0F0",
"w	c #EDEDED",
"x	c #E5E5E5",
"y	c #CFCFCF",
"z	c #E9E9E9",
"A	c #E7E7E7",
"B	c #E6E6E6",
"C	c #E2E2E2",
"D	c #D8D8D8",
"E	c #C8C8C8",
"F	c #BEBEBE",
"           ..+@@##$           ",
"        .%&*==@@-;>,')        ",
"       !~{=#>]@@-^/(_,:       ",
"     .&*#<[}[^@@|1223''-4     ",
"    !~=><;]]]^@@5667317528    ",
"   !*>}};]^''-@@99277690abc   ",
"   d>};]ee^-|1@@9622f0g4h08   ",
"  $=},e'''-|/7@@f660)ahhb0f8  ",
" &*>[]'--|//_7@@f90)ahh4)g888 ",
" d#[,^'-/_3_3(@@9)gb4h4aa8888 ",
" *[,e'-/333317@@)gbh8hab88888 ",
"i=[]'--_3331(5@@ab4hhbb8888888",
"~}[e-|/_31((72@@bhhhbb88888888",
"*,|/_3752226f)@@88888888888888",
"jj@@@@@@@@@@@@@@@@klmlkjnopqrs",
"jj@@@@@@@@@@@@@@kmnttnmuvwvrxy",
"|622g44bbbh888@j88888888888888",
"3(70bhagbh8888mt88888888888888",
"e/944agbh88888nq88888888888888",
" 5bhggah888888qv8888888888888 ",
" )a)0g48888888qp8888888888888 ",
" [ff)h88888888qo8888888888888 ",
"  394888888888uq888888888888  ",
"   a8888888888tv88888888888   ",
"   e8888888888vz88888888888   ",
"    f888888888zx8888888888    ",
"     //8888888AA888888888     ",
"       )888888AB8888888       ",
"        888888CD888888        ",
"           888EF888           "};
